animation{
  src_image = "entities/zoria.png",
  name = "on_ground",
  directions = {
    {
      y = 400,
      x = 80,
      origin_x = 40,
      origin_y = 65,
      frame_height = 80,
      frame_width = 80
    }
  }
}
animation{
  frame_delay = 100,
  src_image = "entities/voadi.png",
  name = "destroy",
  directions = {
    {
      y = 400,
      x = 0,
      origin_x = 80,
      num_frames = 3,
      origin_y = 100,
      frame_height = 160,
      frame_width = 160
    }
  }
}
